\relax 
\providecommand\hyper@newdestlabel[2]{}
\citation{robert2011}
\@writefile{lof}{\addvspace {10pt}}
\@writefile{lot}{\addvspace {10pt}}
\@writefile{toc}{\contentsline {chapter}{\chapternumberline {7}Meetings}{42}{chapter.7}\protected@file@percent }
\@writefile{toc}{\contentsline {section}{\numberline {7.1}The Basics}{42}{section.7.1}\protected@file@percent }
\@writefile{toc}{\contentsline {section}{\numberline {7.2}Meeting Strategies}{43}{section.7.2}\protected@file@percent }
\@writefile{toc}{\contentsline {subsection}{Strategy to Adopt an Action}{44}{section*.10}\protected@file@percent }
\@writefile{toc}{\contentsline {subsection}{Strategy to Delay an Action}{45}{section*.11}\protected@file@percent }
\@writefile{toc}{\contentsline {subsection}{Strategy to Defeat a Motion}{46}{section*.12}\protected@file@percent }
\@writefile{toc}{\contentsline {subsection}{Compromise as a Strategy}{46}{section*.13}\protected@file@percent }
\@writefile{toc}{\contentsline {subsection}{Other Strategies}{46}{section*.14}\protected@file@percent }
\@writefile{toc}{\contentsline {subsection}{Voting Strategies}{49}{section*.15}\protected@file@percent }
\@setckpt{chap/ch7}{
\setcounter{page}{50}
\setcounter{equation}{0}
\setcounter{enumi}{9}
\setcounter{enumii}{0}
\setcounter{enumiii}{0}
\setcounter{enumiv}{0}
\setcounter{footnote}{0}
\setcounter{mpfootnote}{0}
\setcounter{@memmarkcntra}{-1}
\setcounter{storedpagenumber}{1}
\setcounter{book}{0}
\setcounter{part}{0}
\setcounter{chapter}{7}
\setcounter{section}{2}
\setcounter{subsection}{0}
\setcounter{subsubsection}{0}
\setcounter{paragraph}{0}
\setcounter{subparagraph}{0}
\setcounter{@ppsavesec}{0}
\setcounter{@ppsaveapp}{0}
\setcounter{vslineno}{0}
\setcounter{poemline}{0}
\setcounter{modulo@vs}{0}
\setcounter{memfvsline}{0}
\setcounter{verse}{0}
\setcounter{chrsinstr}{0}
\setcounter{poem}{0}
\setcounter{newflo@tctr}{4}
\setcounter{@contsubnum}{0}
\setcounter{maxsecnumdepth}{1}
\setcounter{sidefootnote}{0}
\setcounter{pagenote}{0}
\setcounter{pagenoteshadow}{0}
\setcounter{memfbvline}{0}
\setcounter{bvlinectr}{0}
\setcounter{cp@cntr}{0}
\setcounter{ism@mctr}{0}
\setcounter{xsm@mctr}{0}
\setcounter{csm@mctr}{0}
\setcounter{ksm@mctr}{0}
\setcounter{xksm@mctr}{0}
\setcounter{cksm@mctr}{0}
\setcounter{msm@mctr}{0}
\setcounter{xmsm@mctr}{0}
\setcounter{cmsm@mctr}{0}
\setcounter{bsm@mctr}{0}
\setcounter{workm@mctr}{0}
\setcounter{sheetsequence}{54}
\setcounter{lastsheet}{114}
\setcounter{lastpage}{110}
\setcounter{figure}{0}
\setcounter{lofdepth}{1}
\setcounter{table}{0}
\setcounter{lotdepth}{1}
\setcounter{AM@survey}{0}
\setcounter{NAT@ctr}{0}
\setcounter{Item}{27}
\setcounter{Hfootnote}{0}
\setcounter{memhycontfloat}{0}
\setcounter{Hpagenote}{0}
\setcounter{bookmark@seq@number}{35}
\setcounter{section@level}{2}
}
