This is BibTeX, Version 0.99dThe top-level auxiliary file: doc.aux
A level-1 auxiliary file: chapters/intro.aux
A level-1 auxiliary file: chapters/relatedlit.aux
A level-1 auxiliary file: chapters/method.aux
A level-1 auxiliary file: chapters/results.aux
A level-1 auxiliary file: chapters/conc.aux
The style file: apa.bst
I found no \citation commands---while reading file doc.aux
Database file #1: biblio.bib
(There was 1 error message)
