\relax 
\providecommand\hyper@newdestlabel[2]{}
\@writefile{lof}{\addvspace {10pt}}
\@writefile{lot}{\addvspace {10pt}}
\@writefile{toc}{\contentsline {chapter}{\chapternumberline {5}Summary, Conclusion, and Recommendations}{7}{chapter.5}\protected@file@percent }
\newlabel{ch-conc}{{\M@TitleReference {5}{Summary, Conclusion, and Recommendations}}{7}{Summary, Conclusion, and Recommendations}{chapter.5}{}}
\newlabel{ch-conc@cref}{{[chapter][5][]5}{[1][7][]7}}
\@writefile{toc}{\contentsline {section}{\numberline {5.1}Summary}{7}{section.5.1}\protected@file@percent }
\newlabel{sec-summary}{{\M@TitleReference {5.1}{Summary}}{7}{Summary}{section.5.1}{}}
\newlabel{sec-summary@cref}{{[section][1][5]5.1}{[1][7][]7}}
\@writefile{toc}{\contentsline {section}{\numberline {5.2}Conclusion}{7}{section.5.2}\protected@file@percent }
\newlabel{sec-conc}{{\M@TitleReference {5.2}{Conclusion}}{7}{Conclusion}{section.5.2}{}}
\newlabel{sec-conc@cref}{{[section][2][5]5.2}{[1][7][]7}}
\@writefile{toc}{\contentsline {section}{\numberline {5.3}Recommendations}{7}{section.5.3}\protected@file@percent }
\newlabel{sec-recommend}{{\M@TitleReference {5.3}{Recommendations}}{7}{Recommendations}{section.5.3}{}}
\newlabel{sec-recommend@cref}{{[section][3][5]5.3}{[1][7][]7}}
\@setckpt{chapters/conc}{
\setcounter{page}{8}
\setcounter{equation}{0}
\setcounter{enumi}{0}
\setcounter{enumii}{0}
\setcounter{enumiii}{0}
\setcounter{enumiv}{0}
\setcounter{footnote}{0}
\setcounter{mpfootnote}{0}
\setcounter{@memmarkcntra}{-1}
\setcounter{storedpagenumber}{1}
\setcounter{book}{0}
\setcounter{part}{0}
\setcounter{chapter}{5}
\setcounter{section}{3}
\setcounter{subsection}{0}
\setcounter{subsubsection}{0}
\setcounter{paragraph}{0}
\setcounter{subparagraph}{0}
\setcounter{@ppsavesec}{0}
\setcounter{@ppsaveapp}{0}
\setcounter{vslineno}{0}
\setcounter{poemline}{0}
\setcounter{modulo@vs}{0}
\setcounter{memfvsline}{0}
\setcounter{verse}{0}
\setcounter{chrsinstr}{0}
\setcounter{poem}{0}
\setcounter{newflo@tctr}{4}
\setcounter{@contsubnum}{0}
\setcounter{maxsecnumdepth}{1}
\setcounter{sidefootnote}{0}
\setcounter{pagenote}{0}
\setcounter{pagenoteshadow}{0}
\setcounter{memfbvline}{0}
\setcounter{bvlinectr}{0}
\setcounter{cp@cntr}{0}
\setcounter{ism@mctr}{0}
\setcounter{xsm@mctr}{0}
\setcounter{csm@mctr}{0}
\setcounter{ksm@mctr}{0}
\setcounter{xksm@mctr}{0}
\setcounter{cksm@mctr}{0}
\setcounter{msm@mctr}{0}
\setcounter{xmsm@mctr}{0}
\setcounter{cmsm@mctr}{0}
\setcounter{bsm@mctr}{0}
\setcounter{workm@mctr}{0}
\setcounter{sheetsequence}{13}
\setcounter{lastsheet}{13}
\setcounter{lastpage}{8}
\setcounter{figure}{0}
\setcounter{lofdepth}{1}
\setcounter{table}{0}
\setcounter{lotdepth}{1}
\setcounter{caption@flags}{0}
\setcounter{continuedfloat}{0}
\setcounter{subfigure}{0}
\setcounter{subtable}{0}
\setcounter{Item}{0}
\setcounter{Hfootnote}{0}
\setcounter{memhycontfloat}{0}
\setcounter{Hpagenote}{0}
\setcounter{bookmark@seq@number}{32}
\setcounter{section@level}{1}
}
