\relax 
\providecommand\hyper@newdestlabel[2]{}
\@writefile{lof}{\addvspace {10pt}}
\@writefile{lot}{\addvspace {10pt}}
\@writefile{toc}{\contentsline {chapter}{\chapternumberline {4}Results and Discussion}{6}{chapter.4}\protected@file@percent }
\newlabel{ch-results}{{\M@TitleReference {4}{Results and Discussion}}{6}{Results and Discussion}{chapter.4}{}}
\newlabel{ch-results@cref}{{[chapter][4][]4}{[1][6][]6}}
\@writefile{toc}{\contentsline {section}{\numberline {4.1}Presentation of Data}{6}{section.4.1}\protected@file@percent }
\newlabel{sec-results}{{\M@TitleReference {4.1}{Presentation of Data}}{6}{Presentation of Data}{section.4.1}{}}
\newlabel{sec-results@cref}{{[section][1][4]4.1}{[1][6][]6}}
\@writefile{toc}{\contentsline {section}{\numberline {4.2}Discussion}{6}{section.4.2}\protected@file@percent }
\newlabel{sec-discussion}{{\M@TitleReference {4.2}{Discussion}}{6}{Discussion}{section.4.2}{}}
\newlabel{sec-discussion@cref}{{[section][2][4]4.2}{[1][6][]6}}
\@setckpt{chapters/results}{
\setcounter{page}{7}
\setcounter{equation}{0}
\setcounter{enumi}{0}
\setcounter{enumii}{0}
\setcounter{enumiii}{0}
\setcounter{enumiv}{0}
\setcounter{footnote}{0}
\setcounter{mpfootnote}{0}
\setcounter{@memmarkcntra}{-1}
\setcounter{storedpagenumber}{1}
\setcounter{book}{0}
\setcounter{part}{0}
\setcounter{chapter}{4}
\setcounter{section}{2}
\setcounter{subsection}{0}
\setcounter{subsubsection}{0}
\setcounter{paragraph}{0}
\setcounter{subparagraph}{0}
\setcounter{@ppsavesec}{0}
\setcounter{@ppsaveapp}{0}
\setcounter{vslineno}{0}
\setcounter{poemline}{0}
\setcounter{modulo@vs}{0}
\setcounter{memfvsline}{0}
\setcounter{verse}{0}
\setcounter{chrsinstr}{0}
\setcounter{poem}{0}
\setcounter{newflo@tctr}{4}
\setcounter{@contsubnum}{0}
\setcounter{maxsecnumdepth}{1}
\setcounter{sidefootnote}{0}
\setcounter{pagenote}{0}
\setcounter{pagenoteshadow}{0}
\setcounter{memfbvline}{0}
\setcounter{bvlinectr}{0}
\setcounter{cp@cntr}{0}
\setcounter{ism@mctr}{0}
\setcounter{xsm@mctr}{0}
\setcounter{csm@mctr}{0}
\setcounter{ksm@mctr}{0}
\setcounter{xksm@mctr}{0}
\setcounter{cksm@mctr}{0}
\setcounter{msm@mctr}{0}
\setcounter{xmsm@mctr}{0}
\setcounter{cmsm@mctr}{0}
\setcounter{bsm@mctr}{0}
\setcounter{workm@mctr}{0}
\setcounter{sheetsequence}{12}
\setcounter{lastsheet}{13}
\setcounter{lastpage}{8}
\setcounter{figure}{0}
\setcounter{lofdepth}{1}
\setcounter{table}{0}
\setcounter{lotdepth}{1}
\setcounter{caption@flags}{0}
\setcounter{continuedfloat}{0}
\setcounter{subfigure}{0}
\setcounter{subtable}{0}
\setcounter{Item}{0}
\setcounter{Hfootnote}{0}
\setcounter{memhycontfloat}{0}
\setcounter{Hpagenote}{0}
\setcounter{bookmark@seq@number}{28}
\setcounter{section@level}{1}
}
