\relax 
\providecommand\hyper@newdestlabel[2]{}
\@writefile{lof}{\addvspace {10pt}}
\@writefile{lot}{\addvspace {10pt}}
\@writefile{toc}{\contentsline {chapter}{\chapternumberline {1}The Year 2020}{2}{chapter.1}\protected@file@percent }
\newlabel{yr-2020}{{\M@TitleReference {1}{The Year 2020}}{2}{The Year 2020}{chapter.1}{}}
\newlabel{yr-2020@cref}{{[chapter][1][]1}{[1][2][]2}}
\@writefile{toc}{\contentsline {section}{\numberline {1.1}January}{2}{section.1.1}\protected@file@percent }
\newlabel{jan-2020}{{\M@TitleReference {1.1}{January}}{2}{January}{section.1.1}{}}
\newlabel{jan-2020@cref}{{[section][1][1]1.1}{[1][2][]2}}
\@writefile{toc}{\contentsline {subsection}{[6792] Wed, 01/01}{2}{section*.5}\protected@file@percent }
\newlabel{d-6792}{{\M@TitleReference {1.1}{[6792] Wed, 01/01}}{2}{[6792] Wed, 01/01}{section*.5}{}}
\newlabel{d-6792@cref}{{[section][1][1]1.1}{[1][2][]2}}
\@setckpt{chapters/yr-2020}{
\setcounter{page}{4}
\setcounter{equation}{0}
\setcounter{enumi}{0}
\setcounter{enumii}{0}
\setcounter{enumiii}{0}
\setcounter{enumiv}{0}
\setcounter{footnote}{0}
\setcounter{mpfootnote}{0}
\setcounter{@memmarkcntra}{-1}
\setcounter{storedpagenumber}{1}
\setcounter{book}{0}
\setcounter{part}{1}
\setcounter{chapter}{1}
\setcounter{section}{1}
\setcounter{subsection}{0}
\setcounter{subsubsection}{0}
\setcounter{paragraph}{0}
\setcounter{subparagraph}{0}
\setcounter{@ppsavesec}{0}
\setcounter{@ppsaveapp}{0}
\setcounter{vslineno}{0}
\setcounter{poemline}{0}
\setcounter{modulo@vs}{0}
\setcounter{memfvsline}{0}
\setcounter{verse}{0}
\setcounter{chrsinstr}{0}
\setcounter{poem}{0}
\setcounter{newflo@tctr}{4}
\setcounter{@contsubnum}{0}
\setcounter{maxsecnumdepth}{1}
\setcounter{sidefootnote}{0}
\setcounter{pagenote}{0}
\setcounter{pagenoteshadow}{0}
\setcounter{memfbvline}{0}
\setcounter{bvlinectr}{0}
\setcounter{cp@cntr}{0}
\setcounter{ism@mctr}{0}
\setcounter{xsm@mctr}{0}
\setcounter{csm@mctr}{0}
\setcounter{ksm@mctr}{0}
\setcounter{xksm@mctr}{0}
\setcounter{cksm@mctr}{0}
\setcounter{msm@mctr}{0}
\setcounter{xmsm@mctr}{0}
\setcounter{cmsm@mctr}{0}
\setcounter{bsm@mctr}{0}
\setcounter{workm@mctr}{0}
\setcounter{sheetsequence}{7}
\setcounter{lastsheet}{7}
\setcounter{lastpage}{4}
\setcounter{figure}{0}
\setcounter{lofdepth}{1}
\setcounter{table}{0}
\setcounter{lotdepth}{1}
\setcounter{caption@flags}{0}
\setcounter{continuedfloat}{0}
\setcounter{subfigure}{0}
\setcounter{subtable}{0}
\setcounter{Item}{0}
\setcounter{Hfootnote}{0}
\setcounter{memhycontfloat}{0}
\setcounter{Hpagenote}{0}
\setcounter{bookmark@seq@number}{6}
\setcounter{section@level}{2}
}
